Lab_2/project_1/project_1.sim/sim_1/behav/xsim/lab02.vcd
$date
   Sat Jun  8 07:13:02 2024
$end

$version
  2023.2
  $dumpfile ("lab02.vcd") 
$end

$timescale
  1ps
$end

$scope module myalu_tb $end
$var reg 1 ! clk $end
$var reg 1 " reset $end
$var reg 32 # A [31:0] $end
$var reg 32 $ B [31:0] $end
$var reg 2 % alu_op [1:0] $end
$var reg 6 & instr_5_0 [5:0] $end
$var wire 32 ' result [31:0] $end
$var reg 32 ( expected_result [31:0] $end
$var wire 4 ) alu_contr [3:0] $end
$var wire 1 * zero $end
$var integer 32 + totalTests [31:0] $end
$var integer 32 , failedTests [31:0] $end
$scope module control $end
$var wire 2 - alu_op [1:0] $end
$var wire 6 . funct [5:0] $end
$var reg 4 / alu_control [3:0] $end
$upscope $end
$scope module uut $end
$var wire 4 ) alu_control [3:0] $end
$var wire 32 0 A [31:0] $end
$var wire 32 1 B [31:0] $end
$var reg 1 2 zero $end
$var reg 32 3 result [31:0] $end
$upscope $end
$scope task test_case $end
$var reg 2 4 alu_op_val [1:0] $end
$var reg 6 5 instr_5_0_val [5:0] $end
$var reg 32 6 A_val [31:0] $end
$var reg 32 7 B_val [31:0] $end
$var reg 1 8 expected_zero_val $end
$var reg 32 9 expected_result_val [31:0] $end
$upscope $end
$upscope $end
$enddefinitions $end

#0
$dumpvars
0!
1"
bx #
bx $
bx %
bx &
bx '
bx (
bx )
x*
b0 +
b0 ,
bx -
bx .
bx /
bx 0
bx 1
x2
bx 3
bx 4
bx 5
bx 6
bx 7
x8
bx 9
$end

#50000
1!

#100000
0!
0"

#150000
1!

#160000
b1000100010001 #
b1111111111111111 $
b10 %
b100100 &
b1000100010001 '
b1000100010001 (
b0 )
0*
b1 +
b10 -
b100100 .
b0 /
b1000100010001 0
b1111111111111111 1
02
b1000100010001 3
b10 4
b100100 5
b1000100010001 6
b1111111111111111 7
08
b1000100010001 9

#200000
0!

#250000
1!

#270000
b0 #
b0 '
b0 (
1*
b10 +
b0 0
12
b0 3
b0 6
18
b0 9

#300000
0!

#350000
1!

#380000
b1000100010001 #
b100101 &
b1111111111111111 '
b1111111111111111 (
b1 )
0*
b11 +
b100101 .
b1 /
b1000100010001 0
02
b1111111111111111 3
b100101 5
b1000100010001 6
08
b1111111111111111 9

#400000
0!

#450000
1!

#490000
b0 #
b0 $
b0 '
b0 (
1*
b100 +
b0 0
b0 1
12
b0 3
b0 6
b0 7
18
b0 9

#500000
0!

#550000
1!

#600000
0!
b1 #
b1111111111111111 $
b100000 &
b10000000000000000 '
b10000000000000000 (
b10 )
0*
b101 +
b100000 .
b10 /
b1 0
b1111111111111111 1
02
b10000000000000000 3
b100000 5
b1 6
b1111111111111111 7
08
b10000000000000000 9

#650000
1!

#700000
0!

#710000
b1000100010001 #
b10001000100010000 '
b10001000100010000 (
b110 +
b1000100010001 0
b10001000100010000 3
b1000100010001 6
b10001000100010000 9

#750000
1!

#800000
0!

#820000
b1 #
b11111111111111111111111111111111 $
b0 '
b0 (
1*
b111 +
b1 0
b11111111111111111111111111111111 1
12
b0 3
b1 6
b11111111111111111111111111111111 7
18
b0 9

#850000
1!

#900000
0!

#930000
b11111111111111111111111111111110 $
b11111111111111111111111111111111 '
b11111111111111111111111111111111 (
0*
b1000 +
b11111111111111111111111111111110 1
02
b11111111111111111111111111111111 3
b11111111111111111111111111111110 7
08
b11111111111111111111111111111111 9

#950000
1!

#1000000
0!

#1040000
b11111111111111111111111111111111 $
b100010 &
b10 '
b10 (
b110 )
0*
b1001 +
b100010 .
b110 /
b11111111111111111111111111111111 1
02
b10 3
b100010 5
b11111111111111111111111111111111 7
b10 9

#1050000
1!

#1100000
0!

#1150000
1!
b11111111111111111111111111111111 #
b1 $
b11111111111111111111111111111110 '
b11111111111111111111111111111110 (
b1010 +
b11111111111111111111111111111111 0
b1 1
b11111111111111111111111111111110 3
b11111111111111111111111111111111 6
b1 7
b11111111111111111111111111111110 9

#1200000
0!

#1250000
1!

#1260000
b11111111111111111111111111111111 $
b0 '
b0 (
1*
b1011 +
b11111111111111111111111111111111 1
12
b0 3
b11111111111111111111111111111111 7
18
b0 9

#1300000
0!

#1350000
1!

#1370000
b1 #
b1 $
b1100 +
b1 0
b1 1
b1 6
b1 7

#1400000
0!

#1450000
1!

#1480000
b10 #
b10 $
b101010 &
b111 )
b1101 +
b101010 .
b111 /
b10 0
b10 1
b101010 5
b10 6
b10 7

#1500000
0!

#1550000
1!

#1590000
b1 $
b1110 +
b1 1
b1 7

#1600000
0!

#1650000
1!

#1700000
0!
b1 #
b10 $
b1 '
b1 (
0*
b1111 +
b1 0
b10 1
02
b1 3
b1 6
b10 7
08
b1 9

#1750000
1!

#1800000
0!

#1810000
b10000 +

#1850000
1!

#1900000
0!

#1920000
b11111111111111111111111111111111 $
b100111 &
b0 '
b0 (
b1100 )
1*
b10001 +
b100111 .
b1100 /
b11111111111111111111111111111111 1
12
b0 3
b100111 5
b11111111111111111111111111111111 7
18
b0 9

#1950000
1!

#2000000
0!

#2030000
b1000100010001 #
b1111111111111111 $
b11111111111111110000000000000000 '
b11111111111111110000000000000000 (
0*
b10010 +
b1000100010001 0
b1111111111111111 1
02
b11111111111111110000000000000000 3
b1000100010001 6
b1111111111111111 7
08
b11111111111111110000000000000000 9

#2050000
1!

#2100000
0!

#2140000
b0 #
b0 $
b11111111111111111111111111111111 '
b11111111111111111111111111111111 (
b10011 +
b0 0
b0 1
b11111111111111111111111111111111 3
b0 6
b0 7
b11111111111111111111111111111111 9

#2150000
1!

#2200000
0!

#2250000
1!
b1 #
b1111111111111111 $
b0 %
b10000000000000000 '
b10000000000000000 (
b10 )
b10100 +
b0 -
b10 /
b1 0
b1111111111111111 1
b10000000000000000 3
b0 4
b1 6
b1111111111111111 7
b10000000000000000 9

#2300000
0!

#2350000
1!

#2360000
b1111111111111111 #
b1 $
b1 %
b101010 &
b1111111111111110 '
b1111111111111110 (
b110 )
b10101 +
b1 -
b101010 .
b110 /
b1111111111111111 0
b1 1
b1111111111111110 3
b1 4
b101010 5
b1111111111111111 6
b1 7
b1111111111111110 9

#2400000
0!

#2450000
1!

#2470000
b1 #
b100100 &
b0 '
b0 (
1*
b10110 +
b100100 .
b1 0
12
b0 3
b100100 5
b1 6
18
b0 9

